2018-07-23T09:19:02.085000, jython, bublesort, 13.75, ??? 
2018-07-23T09:19:04.886000, jython, insertionSort, 2.61800003052, ??? 
2018-07-23T09:19:05.206000, jython, mergeSort, 0.235000133514, ??? 
2018-07-23T09:22:59.594000, jython, bublesort, 14.3370001316, ??? 
2018-07-23T09:23:02.372000, jython, insertionSort, 2.72099995613, ??? 
2018-07-23T09:23:02.657000, jython, mergeSort, 0.207000017166, ??? 
2018-08-19T07:59:20.246000, jython, bubblesort, 55.7580001354, 0 
2018-08-19T08:01:41.102000, jython, bubblesort, 64.3450000286, 0 
2018-08-19T08:01:41.153000, jython, insertionsort, 0.0240001678467, 0 
2018-08-19T08:01:41.389000, jython, mergesort, 0.218999862671, 0 
2018-08-19T08:10:07.176000, jython, bubblesort, 155.121000051, 0 
2018-08-19T08:10:07.301000, jython, insertionsort, 0.069000005722, 0 
2018-08-19T08:10:07.940000, jython, mergesort, 0.611000061035, 0 
2018-08-19T08:13:53.833000, jython, bubblesort, 185.282000065, 0 
2018-08-19T08:13:53.992000, jython, insertionsort, 0.100999832153, 0 
2018-08-19T08:13:54.756000, jython, mergesort, 0.720999956131, 0 
2018-08-20T08:23:19.670000, jython, bubblesort, 54.7779998779, 21548464 
2018-08-20T08:23:19.709000, jython, insertionsort, 0.0230000019073, 317456 
2018-08-20T08:23:19.885000, jython, mergesort, 0.164999961853, 31989304 
